<svg width="312" height="278" viewBox="0 0 312 278" fill="none" xmlns="http://www.w3.org/2000/svg">
    <g clip-path="url(#clip0_2003_2176)">
        <path d="M296.559 123.467C293.22 107.15 287.357 91.2244 280.392 76.5904C268.38 51.3321 248.663 30.3553 223.53 17.9036C161.749 -12.6556 117.17 0.0755029 92.973 24.9034C68.776 49.7313 75.779 92.3797 49.6632 110.842C23.5473 129.304 5.09173 137.573 3.81502 171.311C2.53831 205.049 19.0977 230.511 45.8481 238.787C72.5986 247.063 112.713 273.809 192.957 258.526C273.2 243.242 292.948 200.564 298.024 170.042C300.6 154.668 299.709 138.894 296.559 123.467Z" fill="#F5EDDC"/>
        <path opacity="0.7" d="M296.559 123.467C293.22 107.15 287.357 91.2244 280.392 76.5904C268.38 51.3321 248.663 30.3553 223.53 17.9036C161.749 -12.6556 117.17 0.0755029 92.973 24.9034C68.776 49.7313 75.779 92.3797 49.6632 110.842C23.5473 129.304 5.09173 137.573 3.81502 171.311C2.53831 205.049 19.0977 230.511 45.8481 238.787C72.5986 247.063 112.713 273.809 192.957 258.526C273.2 243.242 292.948 200.564 298.024 170.042C300.6 154.668 299.709 138.894 296.559 123.467Z" fill="white"/>
        <path d="M119.98 12.9425H113.136V43.2601H119.98V12.9425Z" fill="#C9C9C9" stroke="#263238" stroke-linecap="round" stroke-linejoin="round"/>
        <path d="M119.98 17.4958H113.136V20.4558H119.98V17.4958Z" fill="white" stroke="#263238" stroke-linecap="round" stroke-linejoin="round"/>
        <path d="M119.98 36.3055H113.136V39.2655H119.98V36.3055Z" fill="white" stroke="#263238" stroke-linecap="round" stroke-linejoin="round"/>
        <path d="M127.965 12.9425H118.386V43.2601H127.965V12.9425Z" fill="#878787" stroke="#263238" stroke-linecap="round" stroke-linejoin="round"/>
        <path d="M127.285 12.9425H120.441V43.2601H127.285V12.9425Z" fill="#C9C9C9" stroke="#263238" stroke-linecap="round" stroke-linejoin="round"/>
        <path d="M127.285 17.4958H120.441V20.4558H127.285V17.4958Z" fill="white" stroke="#263238" stroke-linecap="round" stroke-linejoin="round"/>
        <path d="M127.285 36.3055H120.441V39.2655H127.285V36.3055Z" fill="white" stroke="#263238" stroke-linecap="round" stroke-linejoin="round"/>
        <path d="M135.263 12.9425H125.684V43.2601H135.263V12.9425Z" fill="#878787" stroke="#263238" stroke-linecap="round" stroke-linejoin="round"/>
        <path d="M134.583 12.9425H127.739V43.2601H134.583V12.9425Z" fill="#C9C9C9" stroke="#263238" stroke-linecap="round" stroke-linejoin="round"/>
        <path d="M134.583 17.4958H127.739V20.4558H134.583V17.4958Z" fill="white" stroke="#263238" stroke-linecap="round" stroke-linejoin="round"/>
        <path d="M134.583 36.3055H127.739V39.2655H134.583V36.3055Z" fill="white" stroke="#263238" stroke-linecap="round" stroke-linejoin="round"/>
        <path d="M142.561 12.9425H132.982V43.2601H142.561V12.9425Z" fill="#C9C9C9" stroke="#263238" stroke-linecap="round" stroke-linejoin="round"/>
        <path d="M148.801 43.5621H164.877L169.152 39.7035H148.801V43.5621Z" fill="white" stroke="#263238" stroke-linecap="round" stroke-linejoin="round"/>
        <path d="M167.332 43.7584L166.818 42.8825L148.468 42.8372L148.997 43.7584H167.332Z" fill="white" stroke="#263238" stroke-linecap="round" stroke-linejoin="round"/>
        <path d="M139.493 13.5662L133.568 16.991L148.752 43.2361L154.677 39.8114L139.493 13.5662Z" fill="#C9C9C9" stroke="#263238" stroke-linecap="round" stroke-linejoin="round"/>
        <path d="M141.779 17.5114L135.854 20.9362L137.337 23.4986L143.262 20.0739L141.779 17.5114Z" fill="white" stroke="#263238" stroke-linecap="round" stroke-linejoin="round"/>
        <path d="M151.206 33.7926L145.281 37.2174L146.763 39.7798L152.688 36.355L151.206 33.7926Z" fill="white" stroke="#263238" stroke-linecap="round" stroke-linejoin="round"/>
        <path d="M169.047 39.9678L154.519 39.9225L139.335 13.675L153.862 13.7203L169.047 39.9678Z" fill="#C9C9C9" stroke="#263238" stroke-linecap="round" stroke-linejoin="round"/>
        <path d="M176.964 28.2108C176.964 28.2108 174.32 27.2669 173.564 23.1138C172.809 18.9607 171.487 13.1087 172.998 11.7872C174.509 10.4658 177.341 9.71067 177.719 12.3535C178.097 14.9964 177.53 20.0934 178.097 21.226C178.663 22.3587 180.552 21.6036 180.552 19.3383C180.552 15.6081 179.041 11.7872 179.578 8.01169C180.333 2.7939 185.621 2.22002 186.188 8.01169C186.505 11.2133 186.596 14.4829 186.596 17.6997C186.596 19.0211 188.862 19.7762 188.673 16.567C188.537 14.3017 190.184 11.6589 192.45 12.414C194.717 13.1691 192.828 23.1742 192.073 24.8732C191.317 26.5722 186.596 26.8893 186.596 26.8893V31.2312L180.93 31.42L180.741 27.0781C179.587 27.7447 178.294 28.1325 176.964 28.2108Z" fill="#F5EDDC" stroke="#263238" stroke-linecap="round" stroke-linejoin="round"/>
        <path d="M182.063 19.9348C182.131 20.8787 182.176 21.445 182.176 21.445" stroke="#263238" stroke-linecap="round" stroke-linejoin="round"/>
        <path d="M182.441 5.2933C182.441 5.2933 181.202 6.15412 181.292 8.73659C181.353 10.3072 181.655 14.6566 181.889 17.8356" stroke="#263238" stroke-linecap="round" stroke-linejoin="round"/>
        <path d="M184.571 14.2036L184.767 20.5238" stroke="#263238" stroke-linecap="round" stroke-linejoin="round"/>
        <path d="M187.336 24.624C186.898 24.6921 186.457 24.7299 186.014 24.7373" stroke="#263238" stroke-linecap="round" stroke-linejoin="round"/>
        <path d="M191.279 14.0072C190.843 14.8338 190.612 15.7533 190.607 16.6879C190.607 18.1981 190.705 22.4342 189.746 23.582C189.512 23.8397 189.226 24.0455 188.907 24.1861" stroke="#263238" stroke-linecap="round" stroke-linejoin="round"/>
        <path d="M174.886 22.5022C175.113 23.6375 175.658 24.685 176.458 25.5226C176.93 25.9009 177.514 26.1144 178.119 26.1307C178.725 26.1471 179.319 25.9654 179.812 25.6132" stroke="#263238" stroke-linecap="round" stroke-linejoin="round"/>
        <path d="M174.705 12.2856C174.705 12.2856 172.794 12.2856 173.458 15.6307C173.745 17.0427 174.01 18.7795 174.35 20.4181" stroke="#263238" stroke-linecap="round" stroke-linejoin="round"/>
        <path d="M181.889 25.0242L182.274 29.1396" stroke="#263238" stroke-linecap="round" stroke-linejoin="round"/>
        <path d="M191.695 29.5322L191.007 35.1653L190.539 39.0013L189.995 43.4639H176.405L175.861 39.0013L175.392 35.1653L174.705 29.5322H191.695Z" fill="white" stroke="#263238" stroke-linecap="round" stroke-linejoin="round"/>
        <path d="M191.007 35.1653L190.539 39.0013H175.861L175.392 35.1653H191.007Z" fill="#F5EDDC" stroke="#263238" stroke-linecap="round" stroke-linejoin="round"/>
        <path d="M199.159 43.4715H111.927V49.248H199.159V43.4715Z" fill="white" stroke="#263238" stroke-linecap="round" stroke-linejoin="round"/>
        <path d="M199.159 43.4715H179.049V49.248H199.159V43.4715Z" fill="white" stroke="#263238" stroke-linecap="round" stroke-linejoin="round"/>
        <path d="M177.092 49.2632C186.437 52.7064 184.752 59.2155 184.752 59.2155H193.599V49.2632H177.092Z" fill="#919191" stroke="#263238" stroke-linecap="round" stroke-linejoin="round"/>
        <path d="M180.076 49.2632C189.414 52.7064 187.729 59.2155 187.729 59.2155H196.583V49.2632H180.076Z" fill="white" stroke="#263238" stroke-linecap="round" stroke-linejoin="round"/>
        <path d="M117.223 49.2632C126.568 52.7064 124.883 59.2155 124.883 59.2155H133.729V49.2632H117.223Z" fill="#919191" stroke="#263238" stroke-linecap="round" stroke-linejoin="round"/>
        <path d="M120.207 49.2632C129.544 52.7064 127.86 59.2155 127.86 59.2155H136.713V49.2632H120.207Z" fill="white" stroke="#263238" stroke-linecap="round" stroke-linejoin="round"/>
        <path d="M200.564 160.083H181.156V167.384H200.564V160.083Z" fill="#263238" stroke="#263238" stroke-linecap="round" stroke-linejoin="round"/>
        <path d="M226.604 161.185H149.36L153.016 101.335H230.268L226.604 161.185Z" fill="#919191" stroke="#263238" stroke-linecap="round" stroke-linejoin="round"/>
        <path d="M224.391 161.185H147.146L150.802 101.335H228.047L224.391 161.185Z" fill="#263238" stroke="#263238" stroke-linecap="round" stroke-linejoin="round"/>
        <path d="M220.304 157.863H151.641L154.889 104.658H223.552L220.304 157.863Z" fill="white" stroke="#263238" stroke-linecap="round" stroke-linejoin="round"/>
        <path d="M200.33 149.934H153.688L156.189 108.932H202.838L200.33 149.934Z" fill="#919191" stroke="#263238" stroke-linecap="round" stroke-linejoin="round"/>
        <path d="M172.091 132.317C172.091 132.317 162.376 136.161 162.316 137.195C162.255 138.23 160.351 149.926 160.351 149.926H189.24L186.807 136.455L176.118 132.015L172.091 132.317Z" fill="white" stroke="#263238" stroke-linecap="round" stroke-linejoin="round"/>
        <path d="M172.378 129.946C171.647 130.139 170.968 130.492 170.391 130.981C169.636 131.736 168.714 134.235 168.714 134.235L168.676 137.195L172.507 135.126L176.397 134.87L180.038 138.275L180.507 133.095C180.507 133.095 179.948 130.135 178.769 129.984C177.591 129.833 172.378 129.946 172.378 129.946Z" fill="white" stroke="#263238" stroke-linecap="round" stroke-linejoin="round"/>
        <path d="M172.257 127.137L172.091 132.317L174.38 136.017L178.165 132.166L178.754 127.432L172.257 127.137Z" fill="white" stroke="#263238" stroke-linecap="round" stroke-linejoin="round"/>
        <path d="M181.595 121.081C181.323 125.423 178.437 130.686 175.271 130.686C172.106 130.686 169.862 125.401 170.127 121.081C170.391 116.762 173.149 113.221 176.337 113.221C179.525 113.221 181.859 116.747 181.595 121.081Z" fill="white" stroke="#263238" stroke-linecap="round" stroke-linejoin="round"/>
        <path d="M170.074 121.655C170.074 121.655 169.054 118.997 168.631 121.066C168.208 123.135 170.293 125.355 170.293 125.355L170.074 121.655Z" fill="white" stroke="#263238" stroke-linecap="round" stroke-linejoin="round"/>
        <path d="M181.595 121.081C181.595 121.081 184.095 120.032 183.362 122.252C183.176 122.88 182.852 123.458 182.412 123.944C181.973 124.431 181.43 124.812 180.824 125.061L181.595 121.081Z" fill="white" stroke="#263238" stroke-linecap="round" stroke-linejoin="round"/>
        <path d="M174.962 121.655C174.982 121.389 174.946 121.121 174.857 120.869C174.767 120.617 174.627 120.386 174.443 120.192C174.26 119.997 174.038 119.843 173.792 119.738C173.545 119.634 173.28 119.582 173.013 119.586C172.456 119.601 171.924 119.82 171.519 120.201C171.113 120.583 170.862 121.101 170.814 121.655C170.794 121.922 170.83 122.19 170.919 122.443C171.009 122.695 171.149 122.926 171.332 123.121C171.516 123.317 171.738 123.472 171.984 123.577C172.23 123.682 172.496 123.735 172.763 123.732C173.321 123.717 173.854 123.497 174.26 123.114C174.665 122.73 174.915 122.211 174.962 121.655Z" fill="white" stroke="#263238" stroke-linecap="round" stroke-linejoin="round"/>
        <path d="M179.993 121.663L182.252 121.066" stroke="#263238" stroke-linecap="round" stroke-linejoin="round"/>
        <path d="M179.993 121.655C180.013 121.389 179.977 121.122 179.888 120.871C179.8 120.619 179.66 120.389 179.477 120.194C179.294 120 179.074 119.845 178.828 119.741C178.583 119.636 178.318 119.583 178.051 119.586C177.493 119.599 176.96 119.817 176.553 120.199C176.146 120.581 175.894 121.099 175.846 121.655C175.826 121.922 175.861 122.19 175.951 122.443C176.04 122.695 176.181 122.926 176.364 123.121C176.547 123.317 176.769 123.472 177.015 123.577C177.261 123.682 177.527 123.735 177.795 123.732C178.353 123.717 178.885 123.497 179.291 123.114C179.697 122.731 179.947 122.211 179.993 121.655Z" fill="white" stroke="#263238" stroke-linecap="round" stroke-linejoin="round"/>
        <path d="M175.823 112.33C175.823 112.33 173.557 111.152 171.857 111.892C170.157 112.632 168.903 116.626 168.986 117.661C169.253 119.017 169.616 120.351 170.074 121.655L171.872 116.475L176.586 114.406L175.823 112.33Z" fill="#263238" stroke="#263238" stroke-linecap="round" stroke-linejoin="round"/>
        <path d="M173.542 113.372C173.542 113.372 177.273 110.412 180.295 111.861C181.22 112.263 181.985 112.962 182.468 113.847C182.951 114.732 183.125 115.752 182.962 116.747C182.917 117.502 182.856 120.885 182.856 120.885L181.058 121.187L180.174 118.401C179.153 117.997 178.159 117.528 177.198 116.996C177.198 116.996 173.202 116.475 173.542 113.372Z" fill="#263238" stroke="#263238" stroke-linecap="round" stroke-linejoin="round"/>
        <path d="M174.962 121.663L174.697 125.952H175.732" fill="white"/>
        <path d="M174.962 121.663L174.697 125.952H175.732" stroke="#263238" stroke-linecap="round" stroke-linejoin="round"/>
        <path d="M174.153 127.583H176.374" stroke="#263238" stroke-linecap="round" stroke-linejoin="round"/>
        <path d="M174.38 136.017L173.557 149.488" stroke="#263238" stroke-linecap="round" stroke-linejoin="round"/>
        <path d="M186.792 136.455C186.792 136.455 183.702 143.417 183.612 144.897C183.521 146.377 183.173 149.632 183.173 149.632" stroke="#263238" stroke-linecap="round" stroke-linejoin="round"/>
        <path d="M162.316 137.195C162.316 137.195 165.39 142.526 165.791 143.236C166.191 143.946 165.7 149.602 165.7 149.602" stroke="#263238" stroke-linecap="round" stroke-linejoin="round"/>
        <path d="M188.854 141.492L189.874 136.908L191.612 135.134L193.251 132.468H193.991L193.085 135.277L195.382 133.948L196.862 131.577L197.723 132.023L195.608 137.497L192.254 139.128L191.672 141.348L188.854 141.492Z" fill="white" stroke="#263238" stroke-linecap="round" stroke-linejoin="round"/>
        <path d="M191.725 149.934L192.005 140.752L188.635 140.163L185.976 149.934H191.725Z" fill="white" stroke="#263238" stroke-linecap="round" stroke-linejoin="round"/>
        <path d="M200.126 153.332H153.477L153.688 149.934H200.33L200.126 153.332Z" fill="white" stroke="#263238" stroke-linecap="round" stroke-linejoin="round"/>
        <path d="M155.38 151.263H198.177" stroke="#263238" stroke-linecap="round" stroke-linejoin="round"/>
        <path d="M220.379 119.873H204.681L205.346 109.075H221.044L220.379 119.873Z" fill="#F5EDDC" stroke="#263238" stroke-linecap="round" stroke-linejoin="round"/>
        <path d="M220.379 119.873H204.681L204.794 118.099H220.493L220.379 119.873Z" fill="white" stroke="#263238" stroke-linecap="round" stroke-linejoin="round"/>
        <path d="M215.31 113.847L211.231 111.408L210.936 116.286L215.31 113.847Z" fill="white" stroke="#263238" stroke-linecap="round" stroke-linejoin="round"/>
        <path d="M219.359 136.606H203.661L204.318 125.801H220.017L219.359 136.606Z" fill="#F5EDDC" stroke="#263238" stroke-linecap="round" stroke-linejoin="round"/>
        <path d="M219.359 136.606H203.661L203.775 134.832H219.465L219.359 136.606Z" fill="white" stroke="#263238" stroke-linecap="round" stroke-linejoin="round"/>
        <path d="M214.29 130.573L210.211 128.134L209.916 133.012L214.29 130.573Z" fill="white" stroke="#263238" stroke-linecap="round" stroke-linejoin="round"/>
        <path d="M218.332 153.332H202.641L203.299 142.526H218.997L218.332 153.332Z" fill="#F5EDDC" stroke="#263238" stroke-linecap="round" stroke-linejoin="round"/>
        <path d="M218.332 153.332H202.641L202.747 151.557H218.445L218.332 153.332Z" fill="white" stroke="#263238" stroke-linecap="round" stroke-linejoin="round"/>
        <path d="M213.263 147.299L209.191 144.867L208.889 149.745L213.263 147.299Z" fill="white" stroke="#263238" stroke-linecap="round" stroke-linejoin="round"/>
        <path d="M204.726 121.663H219.971" stroke="#263238" stroke-linecap="round" stroke-linejoin="round"/>
        <path d="M204.613 123.437H219.866" stroke="#263238" stroke-linecap="round" stroke-linejoin="round"/>
        <path d="M203.691 138.532H218.944" stroke="#263238" stroke-linecap="round" stroke-linejoin="round"/>
        <path d="M203.586 140.314H218.838" stroke="#263238" stroke-linecap="round" stroke-linejoin="round"/>
        <path d="M196.93 167.384H185.462C185.462 166.241 185.917 165.144 186.726 164.336C187.535 163.527 188.632 163.073 189.776 163.073H192.601C193.745 163.073 194.843 163.527 195.652 164.336C196.461 165.144 196.915 166.241 196.915 167.384H196.93Z" fill="white" stroke="#263238" stroke-linecap="round" stroke-linejoin="round"/>
        <path d="M180.001 165.036H123.931V167.384H180.001V165.036Z" fill="#919191" stroke="#263238" stroke-linecap="round" stroke-linejoin="round"/>
        <path d="M179.985 165.036H165.896V167.384H179.985V165.036Z" fill="white" stroke="#263238" stroke-linecap="round" stroke-linejoin="round"/>
        <path d="M202.891 183.045L209.69 274.662C209.725 274.997 209.887 275.305 210.141 275.525C210.396 275.744 210.725 275.858 211.061 275.844C211.397 275.829 211.715 275.687 211.95 275.447C212.185 275.206 212.32 274.885 212.326 274.549L211.306 183.045H202.891Z" fill="#919191" stroke="#263238" stroke-linecap="round" stroke-linejoin="round"/>
        <path d="M208.02 183.045L211.609 275.72C211.82 275.607 211.997 275.438 212.119 275.231C212.242 275.025 212.306 274.789 212.304 274.549L211.306 183.045H208.02Z" fill="white" stroke="#263238" stroke-linecap="round" stroke-linejoin="round"/>
        <path d="M245.626 183.045L252.425 274.662C252.461 274.997 252.622 275.305 252.877 275.525C253.132 275.744 253.461 275.858 253.797 275.844C254.133 275.829 254.451 275.687 254.686 275.447C254.921 275.206 255.055 274.885 255.062 274.549L254.042 183.045H245.626Z" fill="#919191" stroke="#263238" stroke-linecap="round" stroke-linejoin="round"/>
        <path d="M250.355 183.045L254.541 275.584C254.698 275.461 254.824 275.304 254.911 275.125C254.997 274.945 255.041 274.748 255.039 274.549L254.042 183.045H250.355Z" fill="white" stroke="#263238" stroke-linecap="round" stroke-linejoin="round"/>
        <path d="M132.974 184.042L126.175 274.655C126.152 274.987 126.003 275.299 125.759 275.526C125.515 275.753 125.194 275.879 124.86 275.878C124.686 275.881 124.512 275.849 124.349 275.785C124.187 275.72 124.039 275.624 123.914 275.502C123.789 275.38 123.689 275.234 123.621 275.073C123.552 274.912 123.517 274.739 123.516 274.564L124.52 183.8L132.974 184.042Z" fill="#263238" stroke="#263238" stroke-linecap="round" stroke-linejoin="round"/>
        <path d="M90.276 184.042L83.477 274.655C83.454 274.987 83.3054 275.299 83.0614 275.526C82.8173 275.753 82.496 275.879 82.1625 275.878C81.9883 275.877 81.8159 275.842 81.6554 275.774C81.4949 275.706 81.3494 275.607 81.2272 275.483C81.1051 275.359 81.0087 275.212 80.9436 275.05C80.8785 274.889 80.8461 274.716 80.848 274.542L81.8528 183.778L90.276 184.042Z" fill="#263238" stroke="#263238" stroke-linecap="round" stroke-linejoin="round"/>
        <path d="M256.543 169.514H79.2918V183.785H256.543V169.514Z" fill="#919191" stroke="#263238" stroke-linecap="round" stroke-linejoin="round"/>
        <path d="M256.543 169.514H205.746V183.785H256.543V169.514Z" fill="white" stroke="#263238" stroke-linecap="round" stroke-linejoin="round"/>
        <path d="M256.543 171.779H79.2918V175.713H256.543V171.779Z" fill="#263238" stroke="#263238" stroke-linecap="round" stroke-linejoin="round"/>
        <path d="M259.096 167.468H76.7384V172.24H259.096V167.468Z" fill="#919191" stroke="#263238" stroke-linecap="round" stroke-linejoin="round"/>
        <path d="M259.088 167.468H209.01V172.24H259.088V167.468Z" fill="white" stroke="#263238" stroke-linecap="round" stroke-linejoin="round"/>
        <path d="M205.323 78.9917H180.711C179.428 78.9917 178.199 79.5009 177.292 80.4072C176.385 81.3135 175.876 82.5427 175.876 83.8244V92.8857C175.875 93.5206 175.999 94.1494 176.242 94.7362C176.484 95.323 176.841 95.8561 177.29 96.3051C177.739 96.7541 178.272 97.11 178.859 97.3525C179.446 97.595 180.076 97.7193 180.711 97.7183H193.599L188.771 111.197L198.018 97.7183H205.323C205.958 97.7193 206.588 97.595 207.175 97.3525C207.762 97.11 208.295 96.7541 208.744 96.3051C209.193 95.8561 209.549 95.323 209.792 94.7362C210.035 94.1494 210.159 93.5206 210.158 92.8857V83.8244C210.158 82.5427 209.649 81.3135 208.742 80.4072C207.835 79.5009 206.606 78.9917 205.323 78.9917Z" fill="white" stroke="#263238" stroke-linecap="round" stroke-linejoin="round"/>
        <path d="M186.422 90.4165C187.394 90.4165 188.182 89.6288 188.182 88.6571C188.182 87.6854 187.394 86.8977 186.422 86.8977C185.45 86.8977 184.662 87.6854 184.662 88.6571C184.662 89.6288 185.45 90.4165 186.422 90.4165Z" fill="#263238"/>
        <path d="M193.017 90.4165C193.989 90.4165 194.777 89.6288 194.777 88.6571C194.777 87.6854 193.989 86.8977 193.017 86.8977C192.045 86.8977 191.257 87.6854 191.257 88.6571C191.257 89.6288 192.045 90.4165 193.017 90.4165Z" fill="#263238"/>
        <path d="M201.365 88.6571C201.365 88.3088 201.261 87.9683 201.068 87.6788C200.874 87.3893 200.598 87.1638 200.276 87.0309C199.954 86.8979 199.6 86.8635 199.258 86.932C198.917 87.0005 198.603 87.1689 198.357 87.4157C198.111 87.6625 197.944 87.9767 197.877 88.3185C197.81 88.6602 197.846 89.0142 197.98 89.3356C198.115 89.657 198.342 89.9312 198.632 90.1236C198.923 90.316 199.264 90.418 199.612 90.4165C199.843 90.4165 200.071 90.3709 200.285 90.2824C200.498 90.1939 200.691 90.0642 200.854 89.9007C201.017 89.7372 201.146 89.5432 201.233 89.3298C201.321 89.1164 201.366 88.8877 201.365 88.6571Z" fill="#263238"/>
        <path d="M0.377716 276.074H311.622" stroke="#263238" stroke-linecap="round" stroke-linejoin="round"/>
        <path d="M120.222 142.632C118.009 138.857 111.497 124.321 111.497 124.321C111.693 122.768 112.011 121.233 112.448 119.73C112.985 118.219 114.337 113.644 114.065 112.692C113.793 111.741 109.872 109.989 109.472 109.853C109.072 109.717 110.008 107.421 108.52 106.878C107.032 106.334 106.495 107.15 106.495 107.15L105.929 110.925L104.191 113.644C103.468 113.094 102.711 112.589 101.925 112.133C100.709 111.454 97.8683 111.182 97.7323 112.269C97.5963 113.357 99.9986 114.293 100.837 114.973C101.676 115.652 102.733 118.892 103.685 119.843C104.55 120.787 105.362 121.777 106.118 122.811L106.662 124.57C106.662 124.57 108.513 142.383 108.732 146.815C108.951 151.248 109.615 162.975 110.945 164.742C112.275 166.509 112.501 167.626 116.233 166.297C119.965 164.968 120.66 163.194 121.521 159.207C122.383 155.22 122.435 146.392 120.222 142.632Z" fill="white" stroke="#263238" stroke-linecap="round" stroke-linejoin="round"/>
        <path d="M121.552 159.229C122.435 155.25 122.435 146.392 120.222 142.617C119.98 142.202 119.686 141.666 119.353 141.031C114.345 139.574 109.585 141.952 109.585 141.952L108.377 142.481C108.535 144.331 108.656 145.879 108.701 146.823C108.928 151.248 109.585 162.982 110.915 164.749C112.244 166.516 112.471 167.634 116.203 166.305C119.935 164.976 120.66 163.216 121.552 159.229Z" fill="#F5EDDC" stroke="#263238" stroke-linecap="round" stroke-linejoin="round"/>
        <path d="M104.07 82.7672C104.616 84.7702 104.92 86.8311 104.977 88.9062C104.977 91.8587 104.07 93.6785 105.438 94.5846C106.805 95.4908 107.938 95.4983 107.704 97.3181C107.615 98.3227 107.216 99.2749 106.563 100.044C106.563 100.044 106.11 109.362 105.657 110.276C105.204 111.189 99.2885 110.049 97.9211 109.815C96.5538 109.581 92.6934 111.408 90.1854 106.41C87.6773 101.411 89.7321 93.905 94.2799 90.0389C97.408 87.438 100.676 85.0104 104.07 82.7672Z" fill="white" stroke="#263238" stroke-linecap="round" stroke-linejoin="round"/>
        <path d="M104.977 88.8685C104.977 88.8685 103.746 87.9472 103.096 89.5632" stroke="#263238" stroke-linecap="round" stroke-linejoin="round"/>
        <path d="M103.874 92.6289C103.697 93.5445 103.754 94.4899 104.04 95.3775" stroke="#263238" stroke-linecap="round" stroke-linejoin="round"/>
        <path d="M106.14 103.306C105.939 103.371 105.725 103.392 105.514 103.369C105.304 103.346 105.1 103.279 104.917 103.172C104.734 103.066 104.575 102.921 104.452 102.749C104.328 102.577 104.242 102.381 104.199 102.173" stroke="#263238" stroke-linecap="round" stroke-linejoin="round"/>
        <path d="M108.717 146.045C108.717 146.045 107.961 149.504 107.289 151.331C106.616 153.158 94.5595 156.511 89.3091 157.206C85.8504 157.637 82.3694 157.867 78.8839 157.893L79.2163 167.452C79.2163 167.452 89.3846 167.656 90.1023 167.452C90.82 167.249 107.938 159.599 107.938 159.599L115.327 158.633C115.327 158.633 118.432 157.878 118.552 155.469C118.673 153.06 115.931 146.211 114.685 145.147C113.438 144.082 110.809 141.258 109.23 142.995C107.651 144.731 108.717 146.045 108.717 146.045Z" fill="white" stroke="#263238" stroke-linecap="round" stroke-linejoin="round"/>
        <path d="M86.0455 163.209C86.0455 159.078 87.1031 158.973 88.3118 157.334C85.1885 157.683 82.0492 157.869 78.9065 157.893L78.6572 166.667C78.6572 166.667 84.2249 167.181 87.6168 167.422C87.3373 167.853 86.0455 165.867 86.0455 163.209Z" fill="#F5EDDC" stroke="#263238" stroke-linecap="round" stroke-linejoin="round"/>
        <path d="M118.877 181.784C114.855 177.266 109.742 173.853 104.025 171.87L90.7595 177.526C89.7294 174.997 88.3622 172.62 86.6952 170.458L84.2174 167.437L85.8113 158.776C85.8113 158.776 95.3602 152.237 96.5916 149.405L96.6369 149.315C98.5558 152.282 106.881 165.127 108.445 166.373C110.212 167.792 115.516 167.966 117.812 165.844C120.109 163.722 121.174 162.31 120.645 159.131C120.645 159.131 117.11 151.527 115.161 148.167C113.211 144.807 108.973 132.793 106.851 129.078C105.34 126.42 104.713 124.547 103.64 123.294C102.895 122.011 102.016 120.812 101.019 119.715C98.8957 117.449 93.0561 116.883 91.8172 116.354C90.5782 115.826 90.4045 115.645 83.3335 113.53C76.2625 111.416 68.3001 110.17 62.6418 114.587C62.6418 114.587 55.042 123.603 52.0655 138.449C49.089 153.294 48.8775 168.321 48.53 170.971C48.1825 173.622 45.1682 186.526 44.2844 193.949C43.4005 201.372 51.1514 208.825 55.9258 211.135C60.7003 213.446 81.2107 213.786 93.2374 211.135C105.264 208.485 124.362 196.464 124.362 196.464C124.362 196.464 125.064 189.033 118.877 181.784Z" fill="#F5EDDC" stroke="#263238" stroke-linecap="round" stroke-linejoin="round"/>
        <path d="M87.6093 149.134L85.1843 149.05" stroke="#263238" stroke-linecap="round" stroke-linejoin="round"/>
        <path d="M86.6952 145.267C90.0921 146.411 93.3999 147.805 96.5916 149.436L90.3667 149.224" stroke="#263238" stroke-linecap="round" stroke-linejoin="round"/>
        <path d="M119.55 149.73C120.247 150.825 120.677 152.07 120.804 153.362C120.804 155.031 121.083 157.266 120.388 156.571C119.693 155.877 119.406 153.498 119.406 153.498L119.55 149.73Z" fill="white" stroke="#263238" stroke-linecap="round" stroke-linejoin="round"/>
        <path d="M115.364 147.782C115.364 147.782 117.978 146.362 119.142 148.069C120.305 149.775 119.995 153.181 119.142 154.865C118.288 156.549 117.313 154.94 117.434 153.445C117.555 151.95 115.364 147.782 115.364 147.782Z" fill="white" stroke="#263238" stroke-linecap="round" stroke-linejoin="round"/>
        <path d="M114.382 145.97C114.382 145.97 117.004 144.55 118.16 146.257C119.315 147.963 119.006 151.361 118.16 153.053C117.314 154.744 116.331 153.128 116.452 151.633C116.573 150.138 114.382 145.97 114.382 145.97Z" fill="white" stroke="#263238" stroke-linecap="round" stroke-linejoin="round"/>
        <path d="M113.181 144.014C113.181 144.014 115.803 142.594 116.958 144.301C118.114 146.007 117.812 149.413 116.958 151.097C116.105 152.781 115.13 151.172 115.251 149.677C115.372 148.182 113.181 144.014 113.181 144.014Z" fill="white" stroke="#263238" stroke-linecap="round" stroke-linejoin="round"/>
        <path d="M106.548 75.6768C106.592 78.3906 105.892 81.0645 104.524 83.4091C100.656 89.3216 97.0222 88.6344 95.4584 93.4142C93.8946 98.1941 91.5603 103.155 94.0533 105.919C96.5462 108.682 98.586 107.051 98.586 107.051C98.586 107.051 100.18 111.144 96.0854 115.237C91.9909 119.329 84.9426 117.736 83.1219 117.057C81.9754 116.615 80.903 116.001 79.9415 115.237C79.9415 115.237 78.8008 118.423 73.1425 118.423C67.4842 118.423 61.0553 114.557 61.0553 107.505C61.0553 100.452 64.9156 95.6871 65.8297 92.9536C66.7438 90.2201 64.2357 81.8158 68.0961 76.5905C71.9564 71.3651 77.9169 67.5292 82.4496 67.5292C86.9823 67.5292 95.8286 70.0135 95.8663 70.0286C96.4631 70.3533 100.286 68.7977 101.321 68.8657C105.121 69.0771 106.503 72.1957 106.548 75.6768Z" fill="#263238" stroke="#263238" stroke-linecap="round" stroke-linejoin="round"/>
        <path d="M91.7869 108.018C92.6118 108.128 93.4475 108.128 94.2723 108.018" stroke="#919191" stroke-linecap="round" stroke-linejoin="round"/>
        <path d="M103.27 79.6411C102.911 81.6652 102.165 83.601 101.071 85.3421C97.5359 90.8922 93.5169 92.8932 88.7047 98.179C85.6149 101.6 86.1966 105.013 88.7047 106.802" stroke="#919191" stroke-linecap="round" stroke-linejoin="round"/>
        <path d="M103.338 73.7437C103.485 74.5763 103.558 75.4203 103.557 76.2657" stroke="#919191" stroke-linecap="round" stroke-linejoin="round"/>
        <path d="M98.586 79.037C98.586 79.037 97.8305 86.8523 94.5519 91.3905C91.2732 95.9287 84.731 98.1865 84.9652 102.989" stroke="#919191" stroke-linecap="round" stroke-linejoin="round"/>
        <path d="M129.031 209.859C129.031 209.859 133.745 234.068 137.779 245.832C141.813 257.597 145.847 268.357 146.844 269.369C147.841 270.381 150.546 274.073 150.546 274.073C149.295 275.069 147.768 275.657 146.172 275.757C143.815 275.757 140.793 272.737 138.096 271.045C135.399 269.354 135.074 268.357 129.688 266.341C124.301 264.325 128.683 258.949 130.028 256.253C130.805 254.798 131.264 253.194 131.372 251.549C129.234 243.977 125.444 236.973 120.275 231.04C111.882 221.631 110.197 199.809 110.197 199.809L126.341 193.768L129.031 209.859Z" fill="white" stroke="#263238" stroke-linecap="round" stroke-linejoin="round"/>
        <path d="M146.179 268.161L145.205 268.357C145.205 268.357 139.486 260.625 135.119 257.937C133.631 256.91 131.88 256.328 130.073 256.26C128.721 258.949 124.354 264.325 129.733 266.341C135.112 268.357 135.452 269.362 138.141 271.045C140.831 272.729 143.86 275.757 146.217 275.757C147.813 275.657 149.34 275.069 150.591 274.073C150.591 274.073 147.894 270.373 146.889 269.369C146.603 268.998 146.365 268.592 146.179 268.161Z" fill="#F5EDDC" stroke="#263238" stroke-linecap="round" stroke-linejoin="round"/>
        <path d="M143.467 274.798C140.808 272.963 138.406 268.886 134.077 266.341C130.141 264.031 128.116 263.94 127.278 264.114C127.483 264.653 127.814 265.136 128.242 265.523C128.67 265.91 129.183 266.191 129.741 266.341C135.127 268.357 135.459 269.362 138.149 271.045C139.849 272.133 141.722 273.809 143.467 274.798Z" fill="#F5EDDC" stroke="#263238" stroke-linecap="round" stroke-linejoin="round"/>
        <path d="M146.179 275.757C146.007 275.751 145.835 275.733 145.665 275.704C145.835 275.737 146.007 275.754 146.179 275.757Z" fill="#F5EDDC" stroke="#263238" stroke-linecap="round" stroke-linejoin="round"/>
        <path d="M99.0544 173.38C99.0544 173.38 115.221 167.656 116.732 171.432C118.243 175.207 125.163 189.29 122.639 195.074C120.116 200.858 102.378 178.462 99.8551 177.979C97.3319 177.495 98.7597 175.071 99.0544 173.38Z" fill="white" stroke="#263238" stroke-linecap="round" stroke-linejoin="round"/>
        <path d="M114.896 180.757C114.896 180.757 133.276 179.247 136.804 182.524C140.332 185.802 128.245 225.059 121.695 237.39C111.429 256.676 114.533 261.727 114.533 261.727C114.533 261.727 115.289 264.748 120.328 269.535C125.367 274.323 126.877 275.07 125.11 275.825C123.342 276.58 115.795 275.825 115.04 275.319C114.284 274.813 108.747 270.29 103.708 268.78C98.6691 267.27 99.4245 266.258 101.691 261.727C103.957 257.197 103.708 260.972 106.224 253.172C109.239 243.56 111.621 233.76 113.355 223.836C114.692 215.749 116.732 206.869 116.158 198.646L114.896 180.757Z" fill="white" stroke="#263238" stroke-linecap="round" stroke-linejoin="round"/>
        <path d="M128.358 193.051C126.433 188.409 123.122 184.475 118.877 181.784C110.839 176.657 104.025 171.87 104.025 171.87L90.7595 177.526C90.7595 177.526 93.9928 183.008 77.373 185.779C64.5757 187.908 52.8285 184.82 46.4903 181.097C45.6064 185.484 44.6847 190.362 44.2239 193.934C43.34 201.357 51.1212 208.779 55.8956 211.082C60.67 213.386 99.1374 218.15 109.495 211.498C128.358 199.439 128.358 193.051 128.358 193.051Z" fill="#263238" stroke="#263238" stroke-linecap="round" stroke-linejoin="round"/>
        <path d="M89.2562 181.686C87.4809 183.144 84.0209 184.707 77.373 185.786C64.5757 187.916 52.8285 184.827 46.4903 181.105C46.2636 182.23 46.037 183.37 45.8104 184.54C50.1542 187.153 59.28 191.578 69.5692 190.317C81.8452 188.814 87.2996 185.462 89.2562 181.686Z" fill="#F5EDDC" stroke="#263238" stroke-linecap="round" stroke-linejoin="round"/>
        <path d="M79.4505 197.861C78.8612 198.616 78.2493 199.371 77.6298 200.126" stroke="white" stroke-linecap="round" stroke-linejoin="round"/>
        <path d="M88.7047 183.529C86.3798 187.802 83.786 191.923 80.9387 195.867" stroke="white" stroke-linecap="round" stroke-linejoin="round"/>
        <path d="M83.1673 188.308C83.1673 188.308 78.6346 194.349 73.8526 197.876" stroke="white" stroke-linecap="round" stroke-linejoin="round"/>
        <path d="M120.328 269.52C115.289 264.748 114.533 261.727 114.533 261.727C114.365 261.571 114.231 261.38 114.141 261.169C113.801 261.524 112.773 262.196 110.258 261.229C108.074 260.391 106.004 258.964 103.821 258.005C103.3 258.934 102.794 259.515 101.691 261.727C99.4245 266.258 98.6691 267.27 103.708 268.78C108.747 270.29 114.284 274.821 115.04 275.319C115.795 275.818 123.35 276.58 125.11 275.825C126.87 275.07 125.367 274.3 120.328 269.52Z" fill="#F5EDDC" stroke="#263238" stroke-linecap="round" stroke-linejoin="round"/>
        <path d="M124.966 195.61L133.533 190.325" stroke="#263238" stroke-linecap="round" stroke-linejoin="round"/>
        <path d="M22.6257 147.752C22.6257 147.752 49.9124 144.339 67.3482 149.262L69.9998 215.568H29.0848C29.0848 215.568 31.7213 179.949 22.6257 147.752Z" fill="#919191" stroke="#263238" stroke-linecap="round" stroke-linejoin="round"/>
        <path d="M67.3482 149.262C49.9125 144.339 22.6257 147.752 22.6257 147.752C25.5457 158.483 27.4851 169.457 28.42 180.538C43.6565 188.143 57.6115 198.079 69.7807 209.988L67.3482 149.262Z" fill="#757575" stroke="#263238" stroke-linecap="round" stroke-linejoin="round"/>
        <path d="M118.802 277.585C118.493 277.586 118.191 277.492 117.938 277.317C117.684 277.141 117.49 276.892 117.382 276.603C111.338 260.323 109.827 218.06 109.736 216.27C109.722 215.869 109.868 215.48 110.142 215.187C110.415 214.894 110.794 214.721 111.194 214.707C111.595 214.693 111.985 214.839 112.278 215.112C112.572 215.385 112.744 215.764 112.758 216.164C112.758 216.602 114.33 259.726 120.214 275.546C120.354 275.921 120.338 276.337 120.171 276.701C120.004 277.065 119.699 277.347 119.323 277.487C119.157 277.552 118.98 277.586 118.802 277.585Z" fill="white" stroke="#263238" stroke-linecap="round" stroke-linejoin="round"/>
        <path d="M85.902 277.585C85.5946 277.584 85.2946 277.49 85.0422 277.315C84.7898 277.139 84.5969 276.891 84.4893 276.603C78.4457 260.323 76.9348 218.06 76.8366 216.27C76.8226 215.869 76.9683 215.48 77.2418 215.187C77.5152 214.894 77.8939 214.721 78.2946 214.707C78.6953 214.693 79.0852 214.839 79.3785 215.112C79.6718 215.385 79.8444 215.764 79.8584 216.164C79.8584 216.602 81.4297 259.726 87.3222 275.546C87.4614 275.921 87.4457 276.337 87.2785 276.701C87.1114 277.065 86.8064 277.347 86.4308 277.487C86.2624 277.552 86.0829 277.586 85.902 277.585Z" fill="white" stroke="#263238" stroke-linecap="round" stroke-linejoin="round"/>
        <path d="M118.394 215.538H28.3671V212.517H115.387C116.189 212.517 116.957 212.835 117.524 213.402C118.091 213.968 118.409 214.736 118.409 215.538H118.394Z" fill="#919191" stroke="#263238" stroke-linecap="round" stroke-linejoin="round"/>
        <path d="M118.386 214.805H28.3671V217.803H118.386V214.805Z" fill="white" stroke="#263238" stroke-linecap="round" stroke-linejoin="round"/>
        <path d="M66.6758 277.585C66.4485 277.59 66.2229 277.543 66.016 277.449C65.8091 277.354 65.6262 277.214 65.481 277.039C65.3358 276.864 65.2319 276.659 65.1772 276.438C65.1224 276.218 65.1183 275.987 65.1649 275.765C73.7091 235.306 65.9204 150.228 65.8146 149.375C65.7963 149.177 65.8172 148.977 65.8762 148.787C65.9351 148.596 66.031 148.42 66.1583 148.266C66.2857 148.113 66.4419 147.987 66.6182 147.894C66.7945 147.801 66.9874 147.744 67.1858 147.725C67.5865 147.688 67.9855 147.812 68.2951 148.069C68.6046 148.326 68.7994 148.695 68.8364 149.096C68.9195 149.957 76.7686 235.48 68.1339 276.384C68.0635 276.72 67.8807 277.022 67.6157 277.24C67.3507 277.458 67.0192 277.58 66.6758 277.585Z" fill="white" stroke="#263238" stroke-linecap="round" stroke-linejoin="round"/>
        <path d="M19.8381 276.482C19.6973 276.484 19.5571 276.464 19.4226 276.422C19.0385 276.313 18.7133 276.056 18.5179 275.708C18.3226 275.36 18.273 274.949 18.3801 274.564C38.0217 204.868 21.349 148.748 21.1828 148.19C21.0876 147.814 21.1406 147.416 21.3309 147.078C21.5211 146.74 21.8341 146.488 22.205 146.375C22.5758 146.261 22.9761 146.295 23.323 146.468C23.67 146.641 23.9369 146.942 24.0686 147.306C24.2423 147.873 41.2021 204.792 21.2885 275.38C21.1997 275.696 21.0101 275.975 20.7483 276.174C20.4865 276.373 20.1669 276.481 19.8381 276.482Z" fill="white" stroke="#263238" stroke-linecap="round" stroke-linejoin="round"/>
    </g>
    <defs>
        <clipPath id="clip0_2003_2176">
            <rect width="312" height="278" fill="white"/>
        </clipPath>
    </defs>
</svg>
