<svg width="18" height="16" viewBox="0 0 18 16" fill="none" xmlns="http://www.w3.org/2000/svg">
    <path fill-rule="evenodd" clip-rule="evenodd" d="M16.435 13.6956H1.56543V5.28252H4.38928C4.74282 5.28252 5.05254 5.03189 5.14469 4.69067L5.9856 1.56512H12.0148L12.8559 4.69067C12.9481 5.03189 13.2578 5.28252 13.6113 5.28252H16.435V13.6956ZM17.2174 3.71733H14.2102L13.3693 0.591787C13.2772 0.250569 12.9674 -6.10352e-05 12.6139 -6.10352e-05H5.38611C5.03257 -6.10352e-05 4.72285 0.250569 4.6307 0.591787L3.78998 3.71733H0.782609C0.350413 3.71733 0 4.04074 0 4.47294V14.4782C0 14.9104 0.350413 15.2608 0.782609 15.2608H17.2174C17.6496 15.2608 18 14.9104 18 14.4782V4.47294C18 4.04074 17.6496 3.71733 17.2174 3.71733ZM9.66931 9.50278C9.81409 9.64756 9.89822 9.84908 9.89822 10.0565C9.89822 10.2619 9.81409 10.4634 9.66931 10.6102C9.52257 10.755 9.32105 10.8391 9.11562 10.8391C8.91018 10.8391 8.70866 10.755 8.56192 10.6102C8.41714 10.4634 8.33301 10.2619 8.33301 10.0565C8.33301 9.84908 8.41714 9.64756 8.56192 9.50278C8.70866 9.35604 8.91018 9.27386 9.11562 9.27386C9.32105 9.27386 9.52257 9.35604 9.66931 9.50278ZM11.1799 8.64706C11.1342 8.99141 10.8401 9.24165 10.502 9.24165C10.4719 9.24165 10.4415 9.23969 10.4108 9.23558C10.036 9.18588 9.77261 8.84134 9.8225 8.46647C9.89724 7.90358 9.233 7.58702 9.20463 7.57371C8.8642 7.41504 8.71218 7.01023 8.86772 6.66823C9.02326 6.32604 9.42279 6.17225 9.76616 6.32467C10.3701 6.5931 11.348 7.38412 11.1799 8.64706ZM9.00078 11.4431C7.38919 11.4431 6.07812 10.1052 6.07812 8.46112C6.07812 6.81686 7.38919 5.47919 9.00078 5.47919C10.6124 5.47919 11.9234 6.81686 11.9234 8.46112C11.9234 10.1052 10.6124 11.4431 9.00078 11.4431ZM8.99959 3.91376C6.52498 3.91376 4.51172 5.95363 4.51172 8.46091C4.51172 10.9682 6.52498 13.0081 8.99959 13.0081C11.4742 13.0081 13.4875 10.9682 13.4875 8.46091C13.4875 5.95363 11.4742 3.91376 8.99959 3.91376Z" fill="white"/>
</svg>
