<svg width="1632" height="888" viewBox="0 0 1632 888" fill="none" xmlns="http://www.w3.org/2000/svg">
    <path
        d="M1495.32 888H445.634C199.998 888 0 688.736 0 444C0 199.264 199.998 0 445.634 0H1348.61C1504.88 0 1632 126.653 1632 282.351C1632 438.048 1504.88 564.701 1348.61 564.701H542.885C499.875 564.701 464.989 529.943 464.989 487.091C464.989 444.238 499.875 409.48 542.885 409.48H1348.61C1418.86 409.48 1476.21 352.343 1476.21 282.351C1476.21 212.358 1418.86 155.221 1348.61 155.221H445.634C285.779 155.221 155.793 284.731 155.793 444C155.793 603.269 285.779 732.779 445.634 732.779H1495.08C1538.09 732.779 1572.98 767.537 1572.98 810.389C1572.98 853.242 1538.33 888 1495.32 888Z"
        fill="#314586"/>
</svg>
