<svg width="49" height="48" viewBox="0 0 49 48" fill="none" xmlns="http://www.w3.org/2000/svg">
    <g clip-path="url(#clip0)">
        <path d="M46.5777 17.2173H19.3145L45.2929 44.5607L48.7481 19.9333C49.0628 18.5414 48.0046 17.2173 46.5777 17.2173Z" fill="#5187D8"/>
        <path d="M38.2983 3.43932H12.5863C11.0029 3.43932 9.71924 4.72295 9.71924 6.30639V39.919H41.1654V6.30639C41.1654 4.72285 39.8818 3.43932 38.2983 3.43932Z" fill="#EFEDEE"/>
        <path d="M41.166 16.5276H13.2671V29.1506H41.166V16.5276Z" fill="#D4D2D3"/>
        <path d="M40.3373 22.6409C39.9949 21.1261 38.6489 20.0506 37.096 20.0506H15.7085L15.2748 18.1326C15.0627 17.1941 14.2287 16.5276 13.2664 16.5276H2.86417C1.54369 16.5276 0.564567 17.7528 0.855755 19.0407L6.07277 42.1149C6.39611 43.5452 7.66689 44.5607 9.13315 44.5607H45.2933L40.3373 22.6409Z" fill="#A6C2EB"/>
        <path d="M19.1071 11.4303C18.707 11.4303 18.3828 11.106 18.3828 10.706V9.55952C18.3828 9.15949 18.707 8.83521 19.1071 8.83521C19.5073 8.83521 19.8314 9.15949 19.8314 9.55952V10.706C19.8315 11.106 19.5072 11.4303 19.1071 11.4303Z" fill="#3A484A"/>
        <path d="M31.7775 11.4303C31.3774 11.4303 31.0532 11.106 31.0532 10.706V9.55952C31.0532 9.15949 31.3774 8.83521 31.7775 8.83521C32.1777 8.83521 32.5019 9.15949 32.5019 9.55952V10.706C32.5019 11.106 32.1777 11.4303 31.7775 11.4303Z" fill="#3A484A"/>
        <path d="M25.4424 12.2776C24.4846 12.2776 23.5856 11.8776 22.9759 11.1801C22.7126 10.8789 22.7433 10.4213 23.0445 10.158C23.3456 9.89477 23.8033 9.92542 24.0665 10.2266C24.4012 10.6094 24.9025 10.8289 25.4423 10.8289C25.982 10.8289 26.4833 10.6093 26.818 10.2266C27.0811 9.92542 27.5388 9.89467 27.8401 10.1581C28.1412 10.4214 28.172 10.879 27.9086 11.1802C27.299 11.8776 26.4001 12.2776 25.4424 12.2776Z" fill="#3A484A"/>
    </g>
    <defs>
        <clipPath id="clip0">
            <rect width="48" height="48" fill="white" transform="translate(0.804199)"/>
        </clipPath>
    </defs>
</svg>
